…
> 上述数据集可以通过 <https://www.jianguoyun.com/p/DUKjjHkQ6uuVCBiU_fYC> 进行下载。

```r
injuries = vroom::vroom("neiss/injuries.tsv.gz")
injuries
```

```
# A tibble: 255,064 x 10
   trmt_date    age sex    race   body_part diag   location  prod_code weight narrative        
   <date>     <dbl> <chr>  <chr>  <chr>     <chr>  <chr>         <dbl>  <dbl> <chr>
 1 2017-01-01    71 male   white  Upper Tr~ Contu~ Other Pu~      1807   77.7 71YOM FELL ON FL~ 
 2 2017-01-01    16 male   white  Lower Arm Burns~ Home            676   77.7 16YOM TRIPPED OV~ 
 3 2017-01-01    58 male   white  Upper Tr~ Contu~ Home            649   77.7 58 YOM WENT TO B~ 
 4 2017-01-01    21 male   white  Lower Tr~ Strai~ Home           4076   77.7 21 YOM TURNED WR~ 
 5 2017-01-01    54 male   white  Head      Inter~ Other Pu~      1807   77.7 54 YOM WAS FOUND~ 
 6 2017-01-01    21 male   white  Hand      Fract~ Home           1884   77.7 21 YOM HIT WALL ~ 
 7 2017-01-01    35 female not s~ Lower Tr~ Strai~ Home           1807   87.1 35YOF STR LWR BA~ 
 8 2017-01-01    62 female not s~ Lower Arm Lacer~ Home           4074   87.1 62YOF LAC LWR AR~ 
 9 2017-01-01    22 male   not s~ Knee      Dislo~ Home           4076   87.1 22YOM D'LOC KNEE~ 
10 2017-01-01    58 female not s~ Lower Leg Fract~ Home           1842   87.1 58YOF FX LWR LEG~ 
# ... with 255,054 more rows
```
…
我们将其与其他两个数据框配对使用，以提供更多背景信息：`products` 可让我们从产品代码中查找产品名称；`population` 可告诉我们 2017 年美国各个年龄段和性别的总人口。

```r
products = vroom::vroom("neiss/products.tsv")
products
```

```
# A tibble: 38 x 2
   prod_code title
       <dbl> <chr>
 1       464 knives, not elsewhere classified
 2       474 tableware and accessories
 3       604 desks, chests, bureaus or buffets
 4       611 bathtubs or showers
 5       649 toilets
 6       676 rugs or carpets, not specified
 7       679 sofas, couches, davenports, divans or st
 8      1141 containers, not specified
 9      1200 sports or recreational activity, n.e.c.
10      1205 basketball (activity, apparel or equip.)
# ... with 28 more rows
```

```r
population = vroom::vroom("neiss/population.tsv")
population
```

```
# A tibble: 170 x 3
     age sex    population
   <dbl> <chr>       <dbl>
 1     0 female    1924145
 2     0 male      2015150
 3     1 female    1943534
 4     1 male      2031718
 5     2 female    1965150
 6     2 male      2056625
 7     3 female    1956281
 8     3 male      2050474
 9     4 female    1953782
10     4 male      2042001
# ... with 160 more rows
```
…
在创建 Shiny 应用之前，让我们先探讨一下数据。我们将首先查看与最严重伤害相关联的产品：1842，“楼梯或台阶”。首先，我们将提取相关数据。

```r
selected = injuries %>% filter(prod_code == 1842)
nrow(selected)
```

接下来，我们将对诊断、身体部位以及受伤发生的位置进行一些基本的汇总。请注意，我用`weight` 变量加权，这样计数就可以解释为整个美国的估计总伤害。

```r
selected %>% count(diag, wt = weight, sort = TRUE)
```

```
# A tibble: 23 x 2
   diag                        n
   <chr>                   <dbl>
 1 Strain, Sprain        267892.
 2 Fracture              243082.
 3 Other Or Not Stated   227515.
 4 Contusion Or Abrasion 195172.
 5 Inter Organ Injury    111340.
 6 Laceration             89190.
 7 Concussion             18983.
 8 Dislocation            16556.
 9 Hematoma               13080.
10 Nerve Damage            7705.
# ... with 13 more rows
```

```r
selected %>% count(body_part, wt = weight, sort = TRUE)
```

```
# A tibble: 25 x 2
   body_part         n
   <chr>         <dbl>
 1 Ankle       183470.
 2 Head        174725.
 3 Lower Trunk 150459.
 4 Knee        112162.
 5 Upper Trunk  98197.
 6 Face         73815.
 7 Foot         73388.
 8 Shoulder     52637.
 9 Lower Leg    52254.
10 Wrist        39202.
# ... with 15 more rows
```
…
如你所料，脚步经常与在家中发生的脚踝扭伤，拉伤和骨折有关。

我们还可以探索年龄和性别的模式。这里我们有很多的数据，所以表格不是那么有用，因此我们可以绘图，使模式更加明显。

```r
summary = selected %>% 
  count(age, sex, wt = weight)
summary
```

```
# A tibble: 204 x 3
     age sex         n
   <dbl> <chr>   <dbl>
 1     0 female  3714.
 2     0 male    3981.
 3     1 female 12155.
 4     1 male   12898.
 5     2 female  6949.
 6     2 male    9730.
 7     3 female  4542.
 8     3 male    8404.
 9     4 female  3618.
10     4 male    4845.
# ... with 194 more rows
```
…
当孩子们学习走路时，我们看到一个大的高峰，到中年以后逐渐变平，然后在 50 岁以后逐渐下降。有趣的是，女性受伤的次数要多得多（也许这是由于高跟鞋吗？）。

解释这种模式的一个问题是，我们知道老年人比年轻人少，因此可受伤的人口也较小。我们可以通过比较受伤人数与总人数并计算受伤率来控制这一情况。在这里，我使用每 10,000的比率。

```r
summary = selected %>% 
  count(age, sex, wt = weight) %>% 
  left_join(population, by = c("age", "sex")) %>% 
  mutate(rate = n / population * 1e4)

summary
```

```
# A tibble: 204 x 5
     age sex         n population  rate
   <dbl> <chr>   <dbl>      <dbl> <dbl>
 1     0 female  3714.    1924145  19.3
 2     0 male    3981.    2015150  19.8
 3     1 female 12155.    1943534  62.5
 4     1 male   12898.    2031718  63.5
 5     2 female  6949.    1965150  35.4
 6     2 male    9730.    2056625  47.3
 7     3 female  4542.    1956281  23.2
 8     3 male    8404.    2050474  41.0
 9     4 female  3618.    1953782  18.5
10     4 male    4845.    2042001  23.7
# ... with 194 more rows
```
…
